<svg xmlns="http://www.w3.org/2000/svg" width="24" height="24" viewBox="0 0 24 24">
    <path fill="rgba(148,247,85,0)" d="M0 0H24V24H0z"/>
    <path fill="#44444f" d="M17.994 13.98a4 4 0 0 0-3.079 1.478l-5.1-2.346a3.63 3.63 0 0 0 0-2.256l5.1-2.346A3.992 3.992 0 1 0 14 5.993a4.158 4.158 0 0 0 .07.709L8.788 9.128a4 4 0 1 0 0 5.711l5.278 2.426a4.158 4.158 0 0 0-.07.709 4 4 0 1 0 4-3.993zm0-9.984a2 2 0 1 1-2 2 2 2 0 0 1 2-1.996zM6 13.98a2 2 0 1 1 2-2 2 2 0 0 1-2 2zm12 5.99a2 2 0 1 1 2-2 2 2 0 0 1-2.006 2.001z" transform="translate(0.007 0.033)"/>
</svg>
